<?xml version="1.0" encoding="UTF-8" standalone="yes"?><svg xmlns="http://www.w3.org/2000/svg" width="242" height="200" viewBox="0 0 242 200" preserveAspectRatio="none"><!--
Source URL: holder.js/100%x200
Created with Holder.js 2.6.0.
Learn more at http://holderjs.com
(c) 2012-2015 Ivan Malopinsky - http://imsky.co
--><defs><style type="text/css"><![CDATA[#holder_1535a151be3 text { fill:#AAAAAA;font-weight:bold;font-family:Arial, Helvetica, Open Sans, sans-serif, monospace;font-size:12pt } ]]></style></defs><g id="holder_1535a151be3"><rect width="242" height="200" fill="#EEEEEE"/><g><text x="89.859375" y="105.1">242x200</text></g></g></svg>